%!PS-Adobe-3.0 EPSF-3.0
%%BoundingBox: 0 0 60 54
%%HiResBoundingBox: 0.000000 0.000781 59.599219 53.249609
%.............................................
%%Creator: GPL Ghostscript 910 (epswrite)
%%CreationDate: 2016/05/25 11:09:17
%%DocumentData: Clean7Bit
%%LanguageLevel: 2
%%EndComments
%%BeginProlog
% This copyright applies to everything between here and the %%EndProlog:
% Copyright (C) 2013 Artifex Software, Inc.  All rights reserved.
%%BeginResource: procset GS_epswrite_2_0_1001 1.001 0
/GS_epswrite_2_0_1001 80 dict dup begin
/PageSize 2 array def/setpagesize{ PageSize aload pop 3 index eq exch
4 index eq and{ pop pop pop}{ PageSize dup  1
5 -1 roll put 0 4 -1 roll put dup null eq {false} {dup where} ifelse{ exch get exec}
{ pop/setpagedevice where
{ pop 1 dict dup /PageSize PageSize put setpagedevice}
{ /setpage where{ pop PageSize aload pop pageparams 3 {exch pop} repeat
setpage}if}ifelse}ifelse}ifelse} bind def
/!{bind def}bind def/#{load def}!/N/counttomark #
/rG{3{3 -1 roll 255 div}repeat setrgbcolor}!/G{255 div setgray}!/K{0 G}!
/r6{dup 3 -1 roll rG}!/r5{dup 3 1 roll rG}!/r3{dup rG}!
/w/setlinewidth #/J/setlinecap #
/j/setlinejoin #/M/setmiterlimit #/d/setdash #/i/setflat #
/m/moveto #/l/lineto #/c/rcurveto #
/p{N 2 idiv{N -2 roll rlineto}repeat}!
/P{N 0 gt{N -2 roll moveto p}if}!
/h{p closepath}!/H{P closepath}!
/lx{0 rlineto}!/ly{0 exch rlineto}!/v{0 0 6 2 roll c}!/y{2 copy c}!
/re{4 -2 roll m exch dup lx exch ly neg lx h}!
/^{3 index neg 3 index neg}!
/f{P fill}!/f*{P eofill}!/s{H stroke}!/S{P stroke}!
/q/gsave #/Q/grestore #/rf{re fill}!
/Y{P clip newpath}!/Y*{P eoclip newpath}!/rY{re Y}!
/|={pop exch 4 1 roll 1 array astore cvx 3 array astore cvx exch 1 index def exec}!
/|{exch string readstring |=}!
/+{dup type/nametype eq{2 index 7 add -3 bitshift 2 index mul}if}!
/@/currentfile #/${+ @ |}!
/B{{2 copy string{readstring pop}aload pop 4 array astore cvx
3 1 roll}repeat pop pop true}!
/Ix{[1 0 0 1 11 -2 roll exch neg exch neg]exch}!
/,{true exch Ix imagemask}!/If{false exch Ix imagemask}!/I{exch Ix image}!
/Ic{exch Ix false 3 colorimage}!
/F{/Columns counttomark 3 add -2 roll/Rows exch/K -1/BlackIs1 true>>
/CCITTFaxDecode filter}!/FX{<</EndOfBlock false F}!
/X{/ASCII85Decode filter}!/@X{@ X}!/&2{2 index 2 index}!
/@F{@ &2<<F}!/@C{@X &2 FX}!
/$X{+ @X |}!/&4{4 index 4 index}!/$F{+ @ &4<<F |}!/$C{+ @X &4 FX |}!
/IC{3 1 roll 10 dict begin 1{/ImageType/Interpolate/Decode/DataSource
/ImageMatrix/BitsPerComponent/Height/Width}{exch def}forall
currentdict end image}!
/~{@ read {pop} if}!
end def
%%EndResource
/pagesave null def
%%EndProlog
%%Page: 1 1
%%BeginPageSetup
GS_epswrite_2_0_1001 begin
/pagesave save store 197 dict begin
0.1 0.1 scale
%%EndPageSetup
gsave mark
Q q
0 0 595.996 532.496 re
Y
0 124 195 rG
4.98438 4.99219 586.023 522.52 re
f
9.974 w
3.8637 M
4.98438 4.99219 586.023 522.52 re
S
255 G
374.78 316.29 0 143.83 P
0 11.43 -12.61 24.23 -27.24 24.23 c
-93.44 0 0 -285.11 48.09 0 0 92.21 50.9 0 p
7.62 -0.92 21.72 12.82 21.72 24.59 c
-0.03 0.25 p f
4.241 w
0 124 195 rG
374.78 316.29 0 143.83 P
0 11.43 -12.61 24.23 -27.24 24.23 c
-93.44 0 0 -285.11 48.09 0 0 92.21 50.9 0 p
7.62 -0.92 21.72 12.82 21.72 24.59 c
-0.03 0.25 h
S
302.43 324.67 16.04 0 P
3.64 -0.05 8.28 2.38 8.3 6.7 c
0.21 43.05 0.21 68.46 0 110.76 c
0 3.84 -3.85 7.62 -7.62 7.62 c
-6.47 0 -9.84 0 -16.61 0 c
-0.12 -125.07 p f
302.43 324.67 16.04 0 P
3.64 -0.05 8.28 2.38 8.3 6.7 c
0.21 43.05 0.21 68.46 0 110.76 c
0 3.84 -3.85 7.62 -7.62 7.62 c
-6.47 0 -9.84 0 -16.61 0 c
-0.12 -125.07 h
S
255 G
51.8398 199.207 48.9375 285.18 re
f
0 124 195 rG
51.8398 199.207 48.9375 285.18 re
S
255 G
241.27 316.29 0 143.83 P
0 11.43 -12.61 24.23 -27.23 24.23 c
-93.45 0 0 -285.11 48.1 0 0 92.21 50.89 0 p
7.61 -0.92 21.73 12.82 21.73 24.59 c
-0.04 0.25 p f
0 124 195 rG
241.27 316.29 0 143.83 P
0 11.43 -12.61 24.23 -27.23 24.23 c
-93.45 0 0 -285.11 48.1 0 0 92.21 50.89 0 p
7.61 -0.92 21.73 12.82 21.73 24.59 c
-0.04 0.25 h
S
168.92 324.67 16.04 0 P
3.65 -0.05 8.29 2.38 8.3 6.7 c
0.22 43.05 0.22 68.46 0 110.76 c
0 3.84 -3.85 7.62 -7.61 7.62 c
-6.48 0 -9.86 0 -16.61 0 c
-0.12 -125.07 p f
168.92 324.67 16.04 0 P
3.65 -0.05 8.29 2.38 8.3 6.7 c
0.22 43.05 0.22 68.46 0 110.76 c
0 3.84 -3.85 7.62 -7.61 7.62 c
-6.48 0 -9.86 0 -16.61 0 c
-0.12 -125.07 h
S
cleartomark end end pagesave restore
 showpage
%%PageTrailer
%%Trailer
%%Pages: 1
